﻿Observatoire des territoires - ANCT; ; ; 
Référentiel géographique : Départements; ; ; 
Code;Libellé;Nombre d'actifs de 15-64 ans 2019;Taux de chômage des 15-64 ans (RP) 2019
01;Ain;318400;10
02;Aisne;233424;17.6
03;Allier;141232;13.7
04;Alpes-de-Haute-Provence;70667;14.3
05;Hautes-Alpes;63746;10.3
06;Alpes-Maritimes;489855;13.2
07;Ardèche;143794;13.7
08;Ardennes;119386;16.6
09;Ariège;66364;15.1
10;Aube;137469;16.1
11;Aude;156052;17.5
12;Aveyron;121299;9.4
13;Bouches-du-Rhône;895402;14.3
14;Calvados;312655;12.4
15;Cantal;63703;8.4
16;Charente;156551;13.6
17;Charente-Maritime;277237;14
18;Cher;131680;13.6
19;Corrèze;103658;10.7
21;Côte-d'Or;248703;11.3
22;Côtes-d'Armor;255220;11.5
23;Creuse;48277;12.3
24;Dordogne;173092;13.7
25;Doubs;252809;12
26;Drôme;233203;13.7
27;Eure;277472;13.1
28;Eure-et-Loir;199039;12.2
29;Finistère;404288;12.1
2A;Corse-du-Sud;71632;11.2
2B;Haute-Corse;78056;12.7
30;Gard;319276;16.8
31;Haute-Garonne;695352;12.4
32;Gers;83075;10.8
33;Gironde;774387;12.7
34;Hérault;515881;16.9
35;Ille-et-Vilaine;511062;10.4
36;Indre;93046;12.7
37;Indre-et-Loire;279428;12.4
38;Isère;600127;11
39;Jura;117057;10.2
40;Landes;183719;13.1
41;Loir-et-Cher;144309;11.8
42;Loire;333225;13
43;Haute-Loire;101576;10.2
44;Loire-Atlantique;683431;11.1
45;Loiret;313579;12.7
46;Lot;73660;12.8
47;Lot-et-Garonne;141853;14
48;Lozère;33822;9.5
49;Maine-et-Loire;378648;11.9
50;Manche;218070;10.4
51;Marne;261770;13.2
52;Haute-Marne;75311;13.1
53;Mayenne;138761;9
54;Meurthe-et-Moselle;333855;13.6
55;Meuse;82119;13.2
56;Morbihan;329068;12.1
57;Moselle;486693;13.2
58;Nièvre;81808;13.2
59;Nord;1176262;17.2
60;Oise;390694;13.4
61;Orne;118499;12.8
62;Pas-de-Calais;640419;16.6
63;Puy-de-Dôme;302271;11.9
64;Pyrénées-Atlantiques;309133;11.6
65;Hautes-Pyrénées;98104;13.5
66;Pyrénées-Orientales;193641;19
67;Bas-Rhin;554529;11.7
68;Haut-Rhin;364478;13.4
69;Rhône;894823;12.2
70;Haute-Saône;105061;12
71;Saône-et-Loire;239900;12
72;Sarthe;254096;12.5
73;Savoie;208899;9
74;Haute-Savoie;424855;9.6
75;Paris;1177663;11.5
76;Seine-Maritime;567242;15
77;Seine-et-Marne;702470;11.2
78;Yvelines;702753;10.2
79;Deux-Sèvres;170793;10.8
80;Somme;254766;15.5
81;Tarn;168215;13.5
82;Tarn-et-Garonne;115222;13.8
83;Var;457800;14.3
84;Vaucluse;247287;16.2
85;Vendée;305527;10.5
86;Vienne;195064;12.3
87;Haute-Vienne;161184;12.5
88;Vosges;161901;14.6
89;Yonne;146433;13.5
90;Territoire de Belfort;65287;14.6
91;Essonne;634926;11
92;Hauts-de-Seine;843343;10.7
93;Seine-Saint-Denis;785689;17.9
94;Val-de-Marne;702410;12.5
95;Val-d'Oise;605121;12.9
971;Guadeloupe;170458;28.7
972;Martinique;164697;23.2
973;Guyane;107622;34.1
974;La Réunion;390829;32.9
976;Mayotte;N/A;N/A